C:\Users\rool0816\Documents\NetBeansProjects\RESTChat\src\main\java\com\videoChat\chat\services\VideoService.java
C:\Users\rool0816\Documents\NetBeansProjects\RESTChat\src\main\java\com\videoChat\chat\services\SessionService.java
C:\Users\rool0816\Documents\NetBeansProjects\RESTChat\src\main\java\com\videoChat\chat\entities\AudioStream.java
C:\Users\rool0816\Documents\NetBeansProjects\RESTChat\src\main\java\com\videoChat\chat\entities\Message.java
C:\Users\rool0816\Documents\NetBeansProjects\RESTChat\src\main\java\com\videoChat\chat\entities\VideoStream.java
C:\Users\rool0816\Documents\NetBeansProjects\RESTChat\src\main\java\com\videoChat\chat\entities\User.java
C:\Users\rool0816\Documents\NetBeansProjects\RESTChat\src\main\java\com\videoChat\chat\services\MessageService.java
C:\Users\rool0816\Documents\NetBeansProjects\RESTChat\src\main\java\com\videoChat\chat\RestChatApplication.java
C:\Users\rool0816\Documents\NetBeansProjects\RESTChat\src\main\java\com\videoChat\chat\controllers\RESTChatController.java
C:\Users\rool0816\Documents\NetBeansProjects\RESTChat\src\main\java\com\videoChat\chat\entities\Session.java
C:\Users\rool0816\Documents\NetBeansProjects\RESTChat\src\main\java\com\videoChat\chat\services\OperationService.java
C:\Users\rool0816\Documents\NetBeansProjects\RESTChat\src\main\java\com\videoChat\chat\entities\Context.java
C:\Users\rool0816\Documents\NetBeansProjects\RESTChat\src\main\java\com\videoChat\chat\controllers\UserController.java
